>>>>>>>>>>>>>>>>>>>>>>>>>>>>>>>>>>>>>>>>>>>>>>>>>>>>>>>>>>>>>>>>>>>>>>>>>>>>>>>
 ------------------------------------------------------
mic:0.7382978723404255
mac:0.5273310927612906
results:defaultdict(<function Classifier.evaluate.<locals>.<lambda> at 0x0F295150>, {'pos': {'hit': 1664, 'acc': 0.9265033407572383, 'miss': 132}, 'neg': {'hit': 71, 'acc': 0.12815884476534295, 'miss': 483}})
errors:defaultdict(<function Classifier.evaluate.<locals>.<lambda> at 0x0F2801E0>, {'pos': defaultdict(<class 'int'>, {'pos': 1664, None: 87, 'neg': 45}), 'neg': defaultdict(<class 'int'>, {'pos': 451, None: 32, 'neg': 71})})

 ------------------------------------------------------
mic:0.7029787234042553
mac:0.5097891621096168
results:defaultdict(<function Classifier.evaluate.<locals>.<lambda> at 0x029EA738>, {'pos': {'hit': 1599, 'acc': 0.9372801875732708, 'miss': 107}, 'neg': {'hit': 53, 'acc': 0.08229813664596274, 'miss': 591}})
errors:defaultdict(<function Classifier.evaluate.<locals>.<lambda> at 0x08844F18>, {'pos': defaultdict(<class 'int'>, {'pos': 1599, None: 65, 'neg': 42}), 'neg': defaultdict(<class 'int'>, {'pos': 573, None: 18, 'neg': 53})})

 ------------------------------------------------------
mic:0.6987234042553192
mac:0.5160207864520224
results:defaultdict(<function Classifier.evaluate.<locals>.<lambda> at 0x089A73D8>, {'pos': {'hit': 1574, 'acc': 0.9280660377358491, 'miss': 122}, 'neg': {'hit': 68, 'acc': 0.10397553516819572, 'miss': 586}})
errors:defaultdict(<function Classifier.evaluate.<locals>.<lambda> at 0x09F4FA50>, {'pos': defaultdict(<class 'int'>, {'pos': 1574, None: 71, 'neg': 51}), 'neg': defaultdict(<class 'int'>, {'pos': 544, None: 42, 'neg': 68})})

 ------------------------------------------------------
mic:0.7225531914893617
mac:0.5185662051754972
results:defaultdict(<function Classifier.evaluate.<locals>.<lambda> at 0x09C92930>, {'pos': {'hit': 1629, 'acc': 0.9167135621834552, 'miss': 148}, 'neg': {'hit': 69, 'acc': 0.12041884816753927, 'miss': 504}})
errors:defaultdict(<function Classifier.evaluate.<locals>.<lambda> at 0x13D8F030>, {'pos': defaultdict(<class 'int'>, {'pos': 1629, None: 98, 'neg': 50}), 'neg': defaultdict(<class 'int'>, {'pos': 473, None: 31, 'neg': 69})})

 ------------------------------------------------------
mic:0.7348936170212766
mac:0.5399761904761905
results:defaultdict(<function Classifier.evaluate.<locals>.<lambda> at 0x0B9FB228>, {'pos': {'hit': 1642, 'acc': 0.9382857142857143, 'miss': 108}, 'neg': {'hit': 85, 'acc': 0.14166666666666666, 'miss': 515}})
errors:defaultdict(<function Classifier.evaluate.<locals>.<lambda> at 0x0B3732B8>, {'pos': defaultdict(<class 'int'>, {'pos': 1642, None: 65, 'neg': 43}), 'neg': defaultdict(<class 'int'>, {'pos': 481, None: 34, 'neg': 85})})

 ------------------------------------------------------
mic:0.7446808510638298
mac:0.5231096059607163
results:defaultdict(<function Classifier.evaluate.<locals>.<lambda> at 0x1421E150>, {'pos': {'hit': 1693, 'acc': 0.9437012263099219, 'miss': 101}, 'neg': {'hit': 57, 'acc': 0.10251798561151079, 'miss': 499}})
errors:defaultdict(<function Classifier.evaluate.<locals>.<lambda> at 0x11B3FD68>, {'pos': defaultdict(<class 'int'>, {'pos': 1693, None: 57, 'neg': 44}), 'neg': defaultdict(<class 'int'>, {'pos': 479, None: 20, 'neg': 57})})

<class 'yatk.ml.nb.NaiveBayes'> bigram bin 72.36879432624114: 72.4% __linear koef1 =0 koef2 =0 koef3 =0


>>>>>>>>>>>>>>>>>>>>>>>>>>>>>>>>>>>>>>>>>>>>>>>>>>>>>>>>>>>>>>>>>>>>>>>>>>>>>>>
 ------------------------------------------------------
mic:0.7634042553191489
mac:0.5256566939769886
results:defaultdict(<function Classifier.evaluate.<locals>.<lambda> at 0x12D24A98>, {'pos': {'hit': 1752, 'acc': 0.9755011135857461, 'miss': 44}, 'neg': {'hit': 42, 'acc': 0.07581227436823104, 'miss': 512}})
errors:defaultdict(<function Classifier.evaluate.<locals>.<lambda> at 0x12D24C00>, {'pos': defaultdict(<class 'int'>, {'pos': 1752, None: 32, 'neg': 12}), 'neg': defaultdict(<class 'int'>, {'pos': 495, None: 17, 'neg': 42})})

 ------------------------------------------------------
mic:0.723404255319149
mac:0.507907786183947
results:defaultdict(<function Classifier.evaluate.<locals>.<lambda> at 0x10A28150>, {'pos': {'hit': 1680, 'acc': 0.984759671746776, 'miss': 26}, 'neg': {'hit': 20, 'acc': 0.031055900621118012, 'miss': 624}})
errors:defaultdict(<function Classifier.evaluate.<locals>.<lambda> at 0x10A28468>, {'pos': defaultdict(<class 'int'>, {'pos': 1680, None: 20, 'neg': 6}), 'neg': defaultdict(<class 'int'>, {'pos': 615, None: 9, 'neg': 20})})

 ------------------------------------------------------
mic:0.7165957446808511
mac:0.5096142749985575
results:defaultdict(<function Classifier.evaluate.<locals>.<lambda> at 0x11523270>, {'pos': {'hit': 1656, 'acc': 0.9764150943396226, 'miss': 40}, 'neg': {'hit': 28, 'acc': 0.04281345565749235, 'miss': 626}})
errors:defaultdict(<function Classifier.evaluate.<locals>.<lambda> at 0x0FD31BB8>, {'pos': defaultdict(<class 'int'>, {'pos': 1656, None: 33, 'neg': 7}), 'neg': defaultdict(<class 'int'>, {'pos': 597, None: 29, 'neg': 28})})

 ------------------------------------------------------
mic:0.7459574468085106
mac:0.515713681018168
results:defaultdict(<function Classifier.evaluate.<locals>.<lambda> at 0x144C8BB8>, {'pos': {'hit': 1715, 'acc': 0.9651097355092854, 'miss': 62}, 'neg': {'hit': 38, 'acc': 0.06631762652705062, 'miss': 535}})
errors:defaultdict(<function Classifier.evaluate.<locals>.<lambda> at 0x144C8540>, {'pos': defaultdict(<class 'int'>, {'pos': 1715, None: 45, 'neg': 17}), 'neg': defaultdict(<class 'int'>, {'pos': 522, None: 13, 'neg': 38})})

 ------------------------------------------------------
mic:0.7463829787234042
mac:0.5235952380952381
results:defaultdict(<function Classifier.evaluate.<locals>.<lambda> at 0x1078FB28>, {'pos': {'hit': 1713, 'acc': 0.9788571428571429, 'miss': 37}, 'neg': {'hit': 41, 'acc': 0.06833333333333333, 'miss': 559}})
errors:defaultdict(<function Classifier.evaluate.<locals>.<lambda> at 0x1078F810>, {'pos': defaultdict(<class 'int'>, {'pos': 1713, None: 28, 'neg': 9}), 'neg': defaultdict(<class 'int'>, {'pos': 548, None: 11, 'neg': 41})})

 ------------------------------------------------------
mic:0.7617021276595745
mac:0.5168818122759318
results:defaultdict(<function Classifier.evaluate.<locals>.<lambda> at 0x10923B70>, {'pos': {'hit': 1761, 'acc': 0.9816053511705686, 'miss': 33}, 'neg': {'hit': 29, 'acc': 0.052158273381294966, 'miss': 527}})
errors:defaultdict(<function Classifier.evaluate.<locals>.<lambda> at 0x10923540>, {'pos': defaultdict(<class 'int'>, {'pos': 1761, None: 28, 'neg': 5}), 'neg': defaultdict(<class 'int'>, {'pos': 520, None: 7, 'neg': 29})})

<class 'yatk.ml.nb.NaiveBayes'> bogram bin 74.29078014184397: 74.3% __linear koef1 =0 koef2 =0 koef3 =0


>>>>>>>>>>>>>>>>>>>>>>>>>>>>>>>>>>>>>>>>>>>>>>>>>>>>>>>>>>>>>>>>>>>>>>>>>>>>>>>
 ------------------------------------------------------
mic:0.7770212765957447
mac:0.6512778094924139
results:defaultdict(<function Classifier.evaluate.<locals>.<lambda> at 0x1125B3D8>, {'pos': {'hit': 1597, 'acc': 0.8891982182628062, 'miss': 199}, 'neg': {'hit': 229, 'acc': 0.41335740072202165, 'miss': 325}})
errors:defaultdict(<function Classifier.evaluate.<locals>.<lambda> at 0x0DDF03D8>, {'pos': defaultdict(<class 'int'>, {'pos': 1597, 'neg': 199}), 'neg': defaultdict(<class 'int'>, {'pos': 325, 'neg': 229})})

 ------------------------------------------------------
mic:0.7251063829787234
mac:0.6221756606205355
results:defaultdict(<function Classifier.evaluate.<locals>.<lambda> at 0x13DA2468>, {'pos': {'hit': 1450, 'acc': 0.8499413833528722, 'miss': 256}, 'neg': {'hit': 254, 'acc': 0.3944099378881988, 'miss': 390}})
errors:defaultdict(<function Classifier.evaluate.<locals>.<lambda> at 0x13DA2420>, {'pos': defaultdict(<class 'int'>, {'pos': 1450, 'neg': 256}), 'neg': defaultdict(<class 'int'>, {'pos': 390, 'neg': 254})})

 ------------------------------------------------------
mic:0.7523404255319149
mac:0.6522768088973516
results:defaultdict(<function Classifier.evaluate.<locals>.<lambda> at 0x029EA738>, {'pos': {'hit': 1489, 'acc': 0.8779481132075472, 'miss': 207}, 'neg': {'hit': 279, 'acc': 0.42660550458715596, 'miss': 375}})
errors:defaultdict(<function Classifier.evaluate.<locals>.<lambda> at 0x12D13C48>, {'pos': defaultdict(<class 'int'>, {'pos': 1489, 'neg': 207}), 'neg': defaultdict(<class 'int'>, {'pos': 375, 'neg': 279})})

 ------------------------------------------------------
mic:0.7693617021276595
mac:0.6452960604819582
results:defaultdict(<function Classifier.evaluate.<locals>.<lambda> at 0x088A37C8>, {'pos': {'hit': 1577, 'acc': 0.887450759707372, 'miss': 200}, 'neg': {'hit': 231, 'acc': 0.4031413612565445, 'miss': 342}})
errors:defaultdict(<function Classifier.evaluate.<locals>.<lambda> at 0x1B069FA8>, {'pos': defaultdict(<class 'int'>, {'pos': 1577, 'neg': 200}), 'neg': defaultdict(<class 'int'>, {'pos': 342, 'neg': 231})})

 ------------------------------------------------------
mic:0.7757446808510639
mac:0.6506428571428571
results:defaultdict(<function Classifier.evaluate.<locals>.<lambda> at 0x157F7030>, {'pos': {'hit': 1586, 'acc': 0.9062857142857143, 'miss': 164}, 'neg': {'hit': 237, 'acc': 0.395, 'miss': 363}})
errors:defaultdict(<function Classifier.evaluate.<locals>.<lambda> at 0x157F7150>, {'pos': defaultdict(<class 'int'>, {'pos': 1586, 'neg': 164}), 'neg': defaultdict(<class 'int'>, {'pos': 363, 'neg': 237})})

 ------------------------------------------------------
mic:0.7846808510638298
mac:0.6479792754425222
results:defaultdict(<function Classifier.evaluate.<locals>.<lambda> at 0x1014FFA8>, {'pos': {'hit': 1628, 'acc': 0.907469342251951, 'miss': 166}, 'neg': {'hit': 216, 'acc': 0.38848920863309355, 'miss': 340}})
errors:defaultdict(<function Classifier.evaluate.<locals>.<lambda> at 0x0CB14FA8>, {'pos': defaultdict(<class 'int'>, {'pos': 1628, 'neg': 166}), 'neg': defaultdict(<class 'int'>, {'pos': 340, 'neg': 216})})

<class 'yatk.ml.svm.SVM'> unigram bin 76.40425531914894: 76.4% __linear koef1 =0 koef2 =0 koef3 =0


>>>>>>>>>>>>>>>>>>>>>>>>>>>>>>>>>>>>>>>>>>>>>>>>>>>>>>>>>>>>>>>>>>>>>>>>>>>>>>>
 ------------------------------------------------------
mic:0.7408510638297873
mac:0.6138832383234303
results:defaultdict(<function Classifier.evaluate.<locals>.<lambda> at 0x088A37C8>, {'pos': {'hit': 1534, 'acc': 0.8541202672605791, 'miss': 262}, 'neg': {'hit': 207, 'acc': 0.37364620938628157, 'miss': 347}})
errors:defaultdict(<function Classifier.evaluate.<locals>.<lambda> at 0x1B069FA8>, {'pos': defaultdict(<class 'int'>, {'pos': 1534, 'neg': 262}), 'neg': defaultdict(<class 'int'>, {'pos': 347, 'neg': 207})})

 ------------------------------------------------------
mic:0.694468085106383
mac:0.5590253253041877
results:defaultdict(<function Classifier.evaluate.<locals>.<lambda> at 0x029EA738>, {'pos': {'hit': 1465, 'acc': 0.8587338804220399, 'miss': 241}, 'neg': {'hit': 167, 'acc': 0.2593167701863354, 'miss': 477}})
errors:defaultdict(<function Classifier.evaluate.<locals>.<lambda> at 0x09DE20C0>, {'pos': defaultdict(<class 'int'>, {'pos': 1465, 'neg': 241}), 'neg': defaultdict(<class 'int'>, {'pos': 477, 'neg': 167})})

 ------------------------------------------------------
mic:0.7029787234042553
mac:0.5922443886677052
results:defaultdict(<function Classifier.evaluate.<locals>.<lambda> at 0x141DE420>, {'pos': {'hit': 1428, 'acc': 0.8419811320754716, 'miss': 268}, 'neg': {'hit': 224, 'acc': 0.3425076452599388, 'miss': 430}})
errors:defaultdict(<function Classifier.evaluate.<locals>.<lambda> at 0x09B33420>, {'pos': defaultdict(<class 'int'>, {'pos': 1428, 'neg': 268}), 'neg': defaultdict(<class 'int'>, {'pos': 430, 'neg': 224})})

 ------------------------------------------------------
mic:0.7165957446808511
mac:0.6027198417632321
results:defaultdict(<function Classifier.evaluate.<locals>.<lambda> at 0x08844F18>, {'pos': {'hit': 1466, 'acc': 0.8249859313449635, 'miss': 311}, 'neg': {'hit': 218, 'acc': 0.38045375218150085, 'miss': 355}})
errors:defaultdict(<function Classifier.evaluate.<locals>.<lambda> at 0x088A37C8>, {'pos': defaultdict(<class 'int'>, {'pos': 1466, 'neg': 311}), 'neg': defaultdict(<class 'int'>, {'pos': 355, 'neg': 218})})

 ------------------------------------------------------
mic:0.7361702127659574
mac:0.6103809523809524
results:defaultdict(<function Classifier.evaluate.<locals>.<lambda> at 0x128A4348>, {'pos': {'hit': 1518, 'acc': 0.8674285714285714, 'miss': 232}, 'neg': {'hit': 212, 'acc': 0.35333333333333333, 'miss': 388}})
errors:defaultdict(<function Classifier.evaluate.<locals>.<lambda> at 0x1AE8B2B8>, {'pos': defaultdict(<class 'int'>, {'pos': 1518, 'neg': 232}), 'neg': defaultdict(<class 'int'>, {'pos': 388, 'neg': 212})})

 ------------------------------------------------------
mic:0.7421276595744681
mac:0.5971473657194646
results:defaultdict(<function Classifier.evaluate.<locals>.<lambda> at 0x0FF95D20>, {'pos': {'hit': 1565, 'acc': 0.8723522853957637, 'miss': 229}, 'neg': {'hit': 179, 'acc': 0.32194244604316546, 'miss': 377}})
errors:defaultdict(<function Classifier.evaluate.<locals>.<lambda> at 0x1A2CB2B8>, {'pos': defaultdict(<class 'int'>, {'pos': 1565, 'neg': 229}), 'neg': defaultdict(<class 'int'>, {'pos': 377, 'neg': 179})})

<class 'yatk.ml.svm.SVM'> bigram bin 72.21985815602837: 72.2% __linear koef1 =0 koef2 =0 koef3 =0


>>>>>>>>>>>>>>>>>>>>>>>>>>>>>>>>>>>>>>>>>>>>>>>>>>>>>>>>>>>>>>>>>>>>>>>>>>>>>>>
 ------------------------------------------------------
mic:0.7859574468085107
mac:0.6558758733808785
results:defaultdict(<function Classifier.evaluate.<locals>.<lambda> at 0x08844F18>, {'pos': {'hit': 1620, 'acc': 0.9020044543429844, 'miss': 176}, 'neg': {'hit': 227, 'acc': 0.40974729241877256, 'miss': 327}})
errors:defaultdict(<function Classifier.evaluate.<locals>.<lambda> at 0x088A37C8>, {'pos': defaultdict(<class 'int'>, {'pos': 1620, 'neg': 176}), 'neg': defaultdict(<class 'int'>, {'pos': 327, 'neg': 227})})

 ------------------------------------------------------
mic:0.7191489361702128
mac:0.6137226668025894
results:defaultdict(<function Classifier.evaluate.<locals>.<lambda> at 0x029EA738>, {'pos': {'hit': 1445, 'acc': 0.847010550996483, 'miss': 261}, 'neg': {'hit': 245, 'acc': 0.3804347826086957, 'miss': 399}})
errors:defaultdict(<function Classifier.evaluate.<locals>.<lambda> at 0x12CF6030>, {'pos': defaultdict(<class 'int'>, {'pos': 1445, 'neg': 261}), 'neg': defaultdict(<class 'int'>, {'pos': 399, 'neg': 245})})

 ------------------------------------------------------
mic:0.7459574468085106
mac:0.636581486930933
results:defaultdict(<function Classifier.evaluate.<locals>.<lambda> at 0x089A34F8>, {'pos': {'hit': 1498, 'acc': 0.8832547169811321, 'miss': 198}, 'neg': {'hit': 255, 'acc': 0.38990825688073394, 'miss': 399}})
errors:defaultdict(<function Classifier.evaluate.<locals>.<lambda> at 0x09B5E810>, {'pos': defaultdict(<class 'int'>, {'pos': 1498, 'neg': 198}), 'neg': defaultdict(<class 'int'>, {'pos': 399, 'neg': 255})})

 ------------------------------------------------------
mic:0.7740425531914894
mac:0.6472087100933884
results:defaultdict(<function Classifier.evaluate.<locals>.<lambda> at 0x12701C90>, {'pos': {'hit': 1590, 'acc': 0.8947664603263928, 'miss': 187}, 'neg': {'hit': 229, 'acc': 0.39965095986038396, 'miss': 344}})
errors:defaultdict(<function Classifier.evaluate.<locals>.<lambda> at 0x08844F18>, {'pos': defaultdict(<class 'int'>, {'pos': 1590, 'neg': 187}), 'neg': defaultdict(<class 'int'>, {'pos': 344, 'neg': 229})})

 ------------------------------------------------------
mic:0.7731914893617021
mac:0.6412619047619047
results:defaultdict(<function Classifier.evaluate.<locals>.<lambda> at 0x029EA738>, {'pos': {'hit': 1594, 'acc': 0.9108571428571428, 'miss': 156}, 'neg': {'hit': 223, 'acc': 0.37166666666666665, 'miss': 377}})
errors:defaultdict(<function Classifier.evaluate.<locals>.<lambda> at 0x12FA3E40>, {'pos': defaultdict(<class 'int'>, {'pos': 1594, 'neg': 156}), 'neg': defaultdict(<class 'int'>, {'pos': 377, 'neg': 223})})

 ------------------------------------------------------
mic:0.7897872340425532
mac:0.6494620357225925
results:defaultdict(<function Classifier.evaluate.<locals>.<lambda> at 0x12D2D078>, {'pos': {'hit': 1643, 'acc': 0.9158305462653289, 'miss': 151}, 'neg': {'hit': 213, 'acc': 0.3830935251798561, 'miss': 343}})
errors:defaultdict(<function Classifier.evaluate.<locals>.<lambda> at 0x1C03F7C8>, {'pos': defaultdict(<class 'int'>, {'pos': 1643, 'neg': 151}), 'neg': defaultdict(<class 'int'>, {'pos': 343, 'neg': 213})})

<class 'yatk.ml.svm.SVM'> bogram bin 76.46808510638297: 76.5% __linear koef1 =0 koef2 =0 koef3 =0


>>>>>>>>>>>>>>>>>>>>>>>>>>>>>>>>>>>>>>>>>>>>>>>>>>>>>>>>>>>>>>>>>>>>>>>>>>>>>>>
 ------------------------------------------------------
mic:0.7676595744680851
mac:0.658883961953157
results:defaultdict(<function Classifier.evaluate.<locals>.<lambda> at 0x13146DF8>, {'pos': {'hit': 1553, 'acc': 0.8646993318485523, 'miss': 243}, 'neg': {'hit': 251, 'acc': 0.45306859205776173, 'miss': 303}})
errors:defaultdict(<function Classifier.evaluate.<locals>.<lambda> at 0x1AE56660>, {'pos': defaultdict(<class 'int'>, {'pos': 1553, 'neg': 243}), 'neg': defaultdict(<class 'int'>, {'pos': 303, 'neg': 251})})

 ------------------------------------------------------
mic:0.7025531914893617
mac:0.6105087633707849
results:defaultdict(<function Classifier.evaluate.<locals>.<lambda> at 0x0CCE5F60>, {'pos': {'hit': 1389, 'acc': 0.8141852286049238, 'miss': 317}, 'neg': {'hit': 262, 'acc': 0.40683229813664595, 'miss': 382}})
errors:defaultdict(<function Classifier.evaluate.<locals>.<lambda> at 0x19F933D8>, {'pos': defaultdict(<class 'int'>, {'pos': 1389, 'neg': 317}), 'neg': defaultdict(<class 'int'>, {'pos': 382, 'neg': 262})})

 ------------------------------------------------------
mic:0.7259574468085106
mac:0.6499688058969477
results:defaultdict(<function Classifier.evaluate.<locals>.<lambda> at 0x09F3FA50>, {'pos': {'hit': 1393, 'acc': 0.8213443396226415, 'miss': 303}, 'neg': {'hit': 313, 'acc': 0.4785932721712538, 'miss': 341}})
errors:defaultdict(<function Classifier.evaluate.<locals>.<lambda> at 0x09F3FC00>, {'pos': defaultdict(<class 'int'>, {'pos': 1393, 'neg': 303}), 'neg': defaultdict(<class 'int'>, {'pos': 341, 'neg': 313})})

 ------------------------------------------------------
mic:0.7468085106382979
mac:0.6404341493644308
results:defaultdict(<function Classifier.evaluate.<locals>.<lambda> at 0x0B49CED0>, {'pos': {'hit': 1507, 'acc': 0.8480585256049522, 'miss': 270}, 'neg': {'hit': 248, 'acc': 0.4328097731239092, 'miss': 325}})
errors:defaultdict(<function Classifier.evaluate.<locals>.<lambda> at 0x17A84858>, {'pos': defaultdict(<class 'int'>, {'pos': 1507, 'neg': 270}), 'neg': defaultdict(<class 'int'>, {'pos': 325, 'neg': 248})})

 ------------------------------------------------------
mic:0.7502127659574468
mac:0.6362380952380953
results:defaultdict(<function Classifier.evaluate.<locals>.<lambda> at 0x106A4F60>, {'pos': {'hit': 1521, 'acc': 0.8691428571428571, 'miss': 229}, 'neg': {'hit': 242, 'acc': 0.4033333333333333, 'miss': 358}})
errors:defaultdict(<function Classifier.evaluate.<locals>.<lambda> at 0x0FCBCF60>, {'pos': defaultdict(<class 'int'>, {'pos': 1521, 'neg': 229}), 'neg': defaultdict(<class 'int'>, {'pos': 358, 'neg': 242})})

 ------------------------------------------------------
mic:0.7719148936170213
mac:0.6501678256057362
results:defaultdict(<function Classifier.evaluate.<locals>.<lambda> at 0x0D8D6DF8>, {'pos': {'hit': 1581, 'acc': 0.8812709030100334, 'miss': 213}, 'neg': {'hit': 233, 'acc': 0.41906474820143885, 'miss': 323}})
errors:defaultdict(<function Classifier.evaluate.<locals>.<lambda> at 0x0A069A08>, {'pos': defaultdict(<class 'int'>, {'pos': 1581, 'neg': 213}), 'neg': defaultdict(<class 'int'>, {'pos': 323, 'neg': 233})})

<class 'yatk.ml.svm.SVM'> unigram delta 74.41843971631205: 74.4% __linear koef1 =0 koef2 =0 koef3 =0


>>>>>>>>>>>>>>>>>>>>>>>>>>>>>>>>>>>>>>>>>>>>>>>>>>>>>>>>>>>>>>>>>>>>>>>>>>>>>>>
 ------------------------------------------------------
mic:0.7327659574468085
mac:0.6085937060294437
results:defaultdict(<function Classifier.evaluate.<locals>.<lambda> at 0x18ACA468>, {'pos': {'hit': 1515, 'acc': 0.8435412026726058, 'miss': 281}, 'neg': {'hit': 207, 'acc': 0.37364620938628157, 'miss': 347}})
errors:defaultdict(<function Classifier.evaluate.<locals>.<lambda> at 0x18AB34F8>, {'pos': defaultdict(<class 'int'>, {'pos': 1515, 'neg': 281}), 'neg': defaultdict(<class 'int'>, {'pos': 347, 'neg': 207})})

 ------------------------------------------------------
mic:0.6885106382978723
mac:0.5708715312415806
results:defaultdict(<function Classifier.evaluate.<locals>.<lambda> at 0x14B22A98>, {'pos': {'hit': 1418, 'acc': 0.8311840562719812, 'miss': 288}, 'neg': {'hit': 200, 'acc': 0.3105590062111801, 'miss': 444}})
errors:defaultdict(<function Classifier.evaluate.<locals>.<lambda> at 0x14B27D68>, {'pos': defaultdict(<class 'int'>, {'pos': 1418, 'neg': 288}), 'neg': defaultdict(<class 'int'>, {'pos': 444, 'neg': 200})})

 ------------------------------------------------------
mic:0.688936170212766
mac:0.584394473775316
results:defaultdict(<function Classifier.evaluate.<locals>.<lambda> at 0x11A976F0>, {'pos': {'hit': 1391, 'acc': 0.8201650943396226, 'miss': 305}, 'neg': {'hit': 228, 'acc': 0.3486238532110092, 'miss': 426}})
errors:defaultdict(<function Classifier.evaluate.<locals>.<lambda> at 0x1A222DB0>, {'pos': defaultdict(<class 'int'>, {'pos': 1391, 'neg': 305}), 'neg': defaultdict(<class 'int'>, {'pos': 426, 'neg': 228})})

 ------------------------------------------------------
mic:0.7093617021276596
mac:0.5855207268363155
results:defaultdict(<function Classifier.evaluate.<locals>.<lambda> at 0x1A6B4D20>, {'pos': {'hit': 1470, 'acc': 0.827236916150816, 'miss': 307}, 'neg': {'hit': 197, 'acc': 0.343804537521815, 'miss': 376}})
errors:defaultdict(<function Classifier.evaluate.<locals>.<lambda> at 0x0F31DA08>, {'pos': defaultdict(<class 'int'>, {'pos': 1470, 'neg': 307}), 'neg': defaultdict(<class 'int'>, {'pos': 376, 'neg': 197})})

 ------------------------------------------------------
mic:0.7319148936170212
mac:0.6119047619047618
results:defaultdict(<function Classifier.evaluate.<locals>.<lambda> at 0x15643FA8>, {'pos': {'hit': 1500, 'acc': 0.8571428571428571, 'miss': 250}, 'neg': {'hit': 220, 'acc': 0.36666666666666664, 'miss': 380}})
errors:defaultdict(<function Classifier.evaluate.<locals>.<lambda> at 0x1E8CED68>, {'pos': defaultdict(<class 'int'>, {'pos': 1500, 'neg': 250}), 'neg': defaultdict(<class 'int'>, {'pos': 380, 'neg': 220})})

 ------------------------------------------------------
mic:0.734468085106383
mac:0.5822014629099396
results:defaultdict(<function Classifier.evaluate.<locals>.<lambda> at 0x177B98A0>, {'pos': {'hit': 1563, 'acc': 0.8712374581939799, 'miss': 231}, 'neg': {'hit': 163, 'acc': 0.2931654676258993, 'miss': 393}})
errors:defaultdict(<function Classifier.evaluate.<locals>.<lambda> at 0x139205D0>, {'pos': defaultdict(<class 'int'>, {'pos': 1563, 'neg': 231}), 'neg': defaultdict(<class 'int'>, {'pos': 393, 'neg': 163})})

<class 'yatk.ml.svm.SVM'> bigram delta 71.43262411347519: 71.4% __linear koef1 =0 koef2 =0 koef3 =0


>>>>>>>>>>>>>>>>>>>>>>>>>>>>>>>>>>>>>>>>>>>>>>>>>>>>>>>>>>>>>>>>>>>>>>>>>>>>>>>
 ------------------------------------------------------
mic:0.7761702127659574
mac:0.6694449357979626
results:defaultdict(<function Classifier.evaluate.<locals>.<lambda> at 0x24E91108>, {'pos': {'hit': 1565, 'acc': 0.871380846325167, 'miss': 231}, 'neg': {'hit': 259, 'acc': 0.4675090252707581, 'miss': 295}})
errors:defaultdict(<function Classifier.evaluate.<locals>.<lambda> at 0x24E91270>, {'pos': defaultdict(<class 'int'>, {'pos': 1565, 'neg': 231}), 'neg': defaultdict(<class 'int'>, {'pos': 295, 'neg': 259})})

 ------------------------------------------------------
mic:0.6978723404255319
mac:0.610184733458091
results:defaultdict(<function Classifier.evaluate.<locals>.<lambda> at 0x18AFDFA8>, {'pos': {'hit': 1372, 'acc': 0.8042203985932005, 'miss': 334}, 'neg': {'hit': 268, 'acc': 0.4161490683229814, 'miss': 376}})
errors:defaultdict(<function Classifier.evaluate.<locals>.<lambda> at 0x18AFD198>, {'pos': defaultdict(<class 'int'>, {'pos': 1372, 'neg': 334}), 'neg': defaultdict(<class 'int'>, {'pos': 376, 'neg': 268})})

 ------------------------------------------------------
mic:0.7302127659574468
mac:0.6482197723732042
results:defaultdict(<function Classifier.evaluate.<locals>.<lambda> at 0x0E24FF60>, {'pos': {'hit': 1413, 'acc': 0.8331367924528302, 'miss': 283}, 'neg': {'hit': 303, 'acc': 0.463302752293578, 'miss': 351}})
errors:defaultdict(<function Classifier.evaluate.<locals>.<lambda> at 0x0B1071E0>, {'pos': defaultdict(<class 'int'>, {'pos': 1413, 'neg': 283}), 'neg': defaultdict(<class 'int'>, {'pos': 351, 'neg': 303})})

 ------------------------------------------------------
mic:0.7574468085106383
mac:0.6592930218488913
results:defaultdict(<function Classifier.evaluate.<locals>.<lambda> at 0x112206A8>, {'pos': {'hit': 1512, 'acc': 0.8508722566122678, 'miss': 265}, 'neg': {'hit': 268, 'acc': 0.4677137870855148, 'miss': 305}})
errors:defaultdict(<function Classifier.evaluate.<locals>.<lambda> at 0x200BD0C0>, {'pos': defaultdict(<class 'int'>, {'pos': 1512, 'neg': 265}), 'neg': defaultdict(<class 'int'>, {'pos': 305, 'neg': 268})})

 ------------------------------------------------------
mic:0.7672340425531915
mac:0.6575238095238095
results:defaultdict(<function Classifier.evaluate.<locals>.<lambda> at 0x18D00CD8>, {'pos': {'hit': 1543, 'acc': 0.8817142857142857, 'miss': 207}, 'neg': {'hit': 260, 'acc': 0.43333333333333335, 'miss': 340}})
errors:defaultdict(<function Classifier.evaluate.<locals>.<lambda> at 0x1A318300>, {'pos': defaultdict(<class 'int'>, {'pos': 1543, 'neg': 207}), 'neg': defaultdict(<class 'int'>, {'pos': 340, 'neg': 260})})

 ------------------------------------------------------
mic:0.7714893617021277
mac:0.6474068237049156
results:defaultdict(<function Classifier.evaluate.<locals>.<lambda> at 0x271F72B8>, {'pos': {'hit': 1584, 'acc': 0.882943143812709, 'miss': 210}, 'neg': {'hit': 229, 'acc': 0.4118705035971223, 'miss': 327}})
errors:defaultdict(<function Classifier.evaluate.<locals>.<lambda> at 0x2798CE40>, {'pos': defaultdict(<class 'int'>, {'pos': 1584, 'neg': 210}), 'neg': defaultdict(<class 'int'>, {'pos': 327, 'neg': 229})})

<class 'yatk.ml.svm.SVM'> bogram delta 75.00709219858156: 75.0% __linear koef1 =0 koef2 =0 koef3 =0


>>>>>>>>>>>>>>>>>>>>>>>>>>>>>>>>>>>>>>>>>>>>>>>>>>>>>>>>>>>>>>>>>>>>>>>>>>>>>>>
 ------------------------------------------------------
mic:0.7753191489361703
mac:0.5889994210962186
results:defaultdict(<function Classifier.evaluate.<locals>.<lambda> at 0x0CC89E88>, {'pos': {'hit': 1691, 'miss': 105, 'acc': 0.9415367483296214}, 'neg': {'hit': 131, 'miss': 423, 'acc': 0.2364620938628159}})
errors:defaultdict(<function Classifier.evaluate.<locals>.<lambda> at 0x0D50A108>, {'pos': defaultdict(<class 'int'>, {'pos': 1691, 'neg': 105}), 'neg': defaultdict(<class 'int'>, {'pos': 423, 'neg': 131})})

 ------------------------------------------------------
mic:0.7106382978723405
mac:0.5952948308126962
results:defaultdict(<function Classifier.evaluate.<locals>.<lambda> at 0x0CCAAC48>, {'pos': {'hit': 1451, 'miss': 255, 'acc': 0.85052754982415}, 'neg': {'hit': 219, 'miss': 425, 'acc': 0.34006211180124224}})
errors:defaultdict(<function Classifier.evaluate.<locals>.<lambda> at 0x0CCAA858>, {'pos': defaultdict(<class 'int'>, {'pos': 1451, 'neg': 255}), 'neg': defaultdict(<class 'int'>, {'pos': 425, 'neg': 219})})

 ------------------------------------------------------
mic:0.7259574468085106
mac:0.5926636157752005
results:defaultdict(<function Classifier.evaluate.<locals>.<lambda> at 0x0B5A89C0>, {'pos': {'hit': 1515, 'miss': 181, 'acc': 0.8932783018867925}, 'neg': {'hit': 191, 'miss': 463, 'acc': 0.29204892966360857}})
errors:defaultdict(<function Classifier.evaluate.<locals>.<lambda> at 0x0B5A85D0>, {'pos': defaultdict(<class 'int'>, {'pos': 1515, 'neg': 181}), 'neg': defaultdict(<class 'int'>, {'pos': 463, 'neg': 191})})

 ------------------------------------------------------
mic:0.7638297872340426
mac:0.5866540760797508
results:defaultdict(<function Classifier.evaluate.<locals>.<lambda> at 0x17AB61E0>, {'pos': {'hit': 1657, 'miss': 120, 'acc': 0.9324704558244232}, 'neg': {'hit': 138, 'miss': 435, 'acc': 0.24083769633507854}})
errors:defaultdict(<function Classifier.evaluate.<locals>.<lambda> at 0x17A86DB0>, {'pos': defaultdict(<class 'int'>, {'pos': 1657, 'neg': 120}), 'neg': defaultdict(<class 'int'>, {'pos': 435, 'neg': 138})})

 ------------------------------------------------------
mic:0.7557446808510638
mac:0.5840952380952381
results:defaultdict(<function Classifier.evaluate.<locals>.<lambda> at 0x0D14B420>, {'pos': {'hit': 1636, 'miss': 114, 'acc': 0.9348571428571428}, 'neg': {'hit': 140, 'miss': 460, 'acc': 0.23333333333333334}})
errors:defaultdict(<function Classifier.evaluate.<locals>.<lambda> at 0x0D14B030>, {'pos': defaultdict(<class 'int'>, {'pos': 1636, 'neg': 114}), 'neg': defaultdict(<class 'int'>, {'pos': 460, 'neg': 140})})

 ------------------------------------------------------
mic:0.7812765957446809
mac:0.6203060962601157
results:defaultdict(<function Classifier.evaluate.<locals>.<lambda> at 0x0D47B390>, {'pos': {'hit': 1661, 'miss': 133, 'acc': 0.9258639910813824}, 'neg': {'hit': 175, 'miss': 381, 'acc': 0.3147482014388489}})
errors:defaultdict(<function Classifier.evaluate.<locals>.<lambda> at 0x0D47B030>, {'pos': defaultdict(<class 'int'>, {'pos': 1661, 'neg': 133}), 'neg': defaultdict(<class 'int'>, {'pos': 381, 'neg': 175})})

<class 'yatk.ml.svm2.SVM2'> unigram bin 75.21276595744682: 75.2% __polynomial koef1 =2 koef2 =0 koef3 =1


>>>>>>>>>>>>>>>>>>>>>>>>>>>>>>>>>>>>>>>>>>>>>>>>>>>>>>>>>>>>>>>>>>>>>>>>>>>>>>>
 ------------------------------------------------------
mic:0.754468085106383
mac:0.5123208011385108
results:defaultdict(<function Classifier.evaluate.<locals>.<lambda> at 0x0D14B0C0>, {'pos': {'hit': 1743, 'miss': 53, 'acc': 0.970489977728285}, 'neg': {'hit': 30, 'miss': 524, 'acc': 0.05415162454873646}})
errors:defaultdict(<function Classifier.evaluate.<locals>.<lambda> at 0x0D114DF8>, {'pos': defaultdict(<class 'int'>, {'pos': 1743, 'neg': 53}), 'neg': defaultdict(<class 'int'>, {'pos': 524, 'neg': 30})})

 ------------------------------------------------------
mic:0.705531914893617
mac:0.5100977186837833
results:defaultdict(<function Classifier.evaluate.<locals>.<lambda> at 0x174E1780>, {'pos': {'hit': 1608, 'miss': 98, 'acc': 0.9425556858147714}, 'neg': {'hit': 50, 'miss': 594, 'acc': 0.07763975155279502}})
errors:defaultdict(<function Classifier.evaluate.<locals>.<lambda> at 0x174E18A0>, {'pos': defaultdict(<class 'int'>, {'pos': 1608, 'neg': 98}), 'neg': defaultdict(<class 'int'>, {'pos': 594, 'neg': 50})})

 ------------------------------------------------------
mic:0.7157446808510638
mac:0.5146612284345969
results:defaultdict(<function Classifier.evaluate.<locals>.<lambda> at 0x17AA2198>, {'pos': {'hit': 1642, 'miss': 54, 'acc': 0.9681603773584906}, 'neg': {'hit': 40, 'miss': 614, 'acc': 0.06116207951070336}})
errors:defaultdict(<function Classifier.evaluate.<locals>.<lambda> at 0x088BCF18>, {'pos': defaultdict(<class 'int'>, {'pos': 1642, 'neg': 54}), 'neg': defaultdict(<class 'int'>, {'pos': 614, 'neg': 40})})

 ------------------------------------------------------
mic:0.7502127659574468
mac:0.5078853215559294
results:defaultdict(<function Classifier.evaluate.<locals>.<lambda> at 0x0D486300>, {'pos': {'hit': 1743, 'miss': 34, 'acc': 0.9808666291502532}, 'neg': {'hit': 20, 'miss': 553, 'acc': 0.034904013961605584}})
errors:defaultdict(<function Classifier.evaluate.<locals>.<lambda> at 0x0D486108>, {'pos': defaultdict(<class 'int'>, {'pos': 1743, 'neg': 34}), 'neg': defaultdict(<class 'int'>, {'pos': 553, 'neg': 20})})

 ------------------------------------------------------
mic:0.7357446808510638
mac:0.5049523809523809
results:defaultdict(<function Classifier.evaluate.<locals>.<lambda> at 0x10EB5108>, {'pos': {'hit': 1709, 'miss': 41, 'acc': 0.9765714285714285}, 'neg': {'hit': 20, 'miss': 580, 'acc': 0.03333333333333333}})
errors:defaultdict(<function Classifier.evaluate.<locals>.<lambda> at 0x10EB50C0>, {'pos': defaultdict(<class 'int'>, {'pos': 1709, 'neg': 41}), 'neg': defaultdict(<class 'int'>, {'pos': 580, 'neg': 20})})

 ------------------------------------------------------
mic:0.7557446808510638
mac:0.5266325401217488
results:defaultdict(<function Classifier.evaluate.<locals>.<lambda> at 0x088BCF18>, {'pos': {'hit': 1725, 'miss': 69, 'acc': 0.9615384615384616}, 'neg': {'hit': 51, 'miss': 505, 'acc': 0.09172661870503597}})
errors:defaultdict(<function Classifier.evaluate.<locals>.<lambda> at 0x17AA2198>, {'pos': defaultdict(<class 'int'>, {'pos': 1725, 'neg': 69}), 'neg': defaultdict(<class 'int'>, {'pos': 505, 'neg': 51})})

<class 'yatk.ml.svm2.SVM2'> bigram bin 73.6241134751773: 73.6% __polynomial koef1 =2 koef2 =0 koef3 =1


>>>>>>>>>>>>>>>>>>>>>>>>>>>>>>>>>>>>>>>>>>>>>>>>>>>>>>>>>>>>>>>>>>>>>>>>>>>>>>>
 ------------------------------------------------------
mic:0.7770212765957447
mac:0.5863682230066012
results:defaultdict(<function Classifier.evaluate.<locals>.<lambda> at 0x10EB5078>, {'pos': {'hit': 1701, 'miss': 95, 'acc': 0.9471046770601337}, 'neg': {'hit': 125, 'miss': 429, 'acc': 0.22563176895306858}})
errors:defaultdict(<function Classifier.evaluate.<locals>.<lambda> at 0x10EAFFA8>, {'pos': defaultdict(<class 'int'>, {'pos': 1701, 'neg': 95}), 'neg': defaultdict(<class 'int'>, {'pos': 429, 'neg': 125})})

 ------------------------------------------------------
mic:0.7119148936170213
mac:0.581674652122942
results:defaultdict(<function Classifier.evaluate.<locals>.<lambda> at 0x12ABAA98>, {'pos': {'hit': 1484, 'miss': 222, 'acc': 0.8698710433763188}, 'neg': {'hit': 189, 'miss': 455, 'acc': 0.29347826086956524}})
errors:defaultdict(<function Classifier.evaluate.<locals>.<lambda> at 0x12ABABB8>, {'pos': defaultdict(<class 'int'>, {'pos': 1484, 'neg': 222}), 'neg': defaultdict(<class 'int'>, {'pos': 455, 'neg': 189})})

 ------------------------------------------------------
mic:0.7276595744680852
mac:0.5858577116150251
results:defaultdict(<function Classifier.evaluate.<locals>.<lambda> at 0x1871F810>, {'pos': {'hit': 1536, 'miss': 160, 'acc': 0.9056603773584906}, 'neg': {'hit': 174, 'miss': 480, 'acc': 0.26605504587155965}})
errors:defaultdict(<function Classifier.evaluate.<locals>.<lambda> at 0x1871F930>, {'pos': defaultdict(<class 'int'>, {'pos': 1536, 'neg': 160}), 'neg': defaultdict(<class 'int'>, {'pos': 480, 'neg': 174})})

 ------------------------------------------------------
mic:0.7663829787234042
mac:0.5918896781739917
results:defaultdict(<function Classifier.evaluate.<locals>.<lambda> at 0x11EB7198>, {'pos': {'hit': 1657, 'miss': 120, 'acc': 0.9324704558244232}, 'neg': {'hit': 144, 'miss': 429, 'acc': 0.2513089005235602}})
errors:defaultdict(<function Classifier.evaluate.<locals>.<lambda> at 0x11EB7228>, {'pos': defaultdict(<class 'int'>, {'pos': 1657, 'neg': 120}), 'neg': defaultdict(<class 'int'>, {'pos': 429, 'neg': 144})})

 ------------------------------------------------------
mic:0.7582978723404256
mac:0.5808809523809524
results:defaultdict(<function Classifier.evaluate.<locals>.<lambda> at 0x22195978>, {'pos': {'hit': 1651, 'miss': 99, 'acc': 0.9434285714285714}, 'neg': {'hit': 131, 'miss': 469, 'acc': 0.21833333333333332}})
errors:defaultdict(<function Classifier.evaluate.<locals>.<lambda> at 0x22195A98>, {'pos': defaultdict(<class 'int'>, {'pos': 1651, 'neg': 99}), 'neg': defaultdict(<class 'int'>, {'pos': 469, 'neg': 131})})

 ------------------------------------------------------
mic:0.7774468085106383
mac:0.6103508497549787
results:defaultdict(<function Classifier.evaluate.<locals>.<lambda> at 0x18A27780>, {'pos': {'hit': 1664, 'miss': 130, 'acc': 0.927536231884058}, 'neg': {'hit': 163, 'miss': 393, 'acc': 0.2931654676258993}})
errors:defaultdict(<function Classifier.evaluate.<locals>.<lambda> at 0x18A278A0>, {'pos': defaultdict(<class 'int'>, {'pos': 1664, 'neg': 130}), 'neg': defaultdict(<class 'int'>, {'pos': 393, 'neg': 163})})

<class 'yatk.ml.svm2.SVM2'> bogram bin 75.31205673758863: 75.3% __polynomial koef1 =2 koef2 =0 koef3 =1


>>>>>>>>>>>>>>>>>>>>>>>>>>>>>>>>>>>>>>>>>>>>>>>>>>>>>>>>>>>>>>>>>>>>>>>>>>>>>>>
 ------------------------------------------------------
mic:0.7408510638297873
mac:0.5808043144412373
results:defaultdict(<function Classifier.evaluate.<locals>.<lambda> at 0x08854078>, {'neg': {'hit': 154, 'miss': 400, 'acc': 0.2779783393501805}, 'pos': {'hit': 1587, 'miss': 209, 'acc': 0.8836302895322939}})
errors:defaultdict(<function Classifier.evaluate.<locals>.<lambda> at 0x0F44FE40>, {'neg': defaultdict(<class 'int'>, {'pos': 400, 'neg': 154}), 'pos': defaultdict(<class 'int'>, {'neg': 209, 'pos': 1587})})

 ------------------------------------------------------
mic:0.6672340425531915
mac:0.5905326833317557
results:defaultdict(<function Classifier.evaluate.<locals>.<lambda> at 0x0ED4C228>, {'neg': {'hit': 271, 'miss': 373, 'acc': 0.42080745341614906}, 'pos': {'hit': 1297, 'miss': 409, 'acc': 0.7602579132473622}})
errors:defaultdict(<function Classifier.evaluate.<locals>.<lambda> at 0x0A922B70>, {'neg': defaultdict(<class 'int'>, {'neg': 271, 'pos': 373}), 'pos': defaultdict(<class 'int'>, {'pos': 1297, 'neg': 409})})

 ------------------------------------------------------
mic:0.6948936170212766
mac:0.5969766963822053
results:defaultdict(<function Classifier.evaluate.<locals>.<lambda> at 0x0ED4C0C0>, {'pos': {'hit': 1387, 'miss': 309, 'acc': 0.8178066037735849}, 'neg': {'hit': 246, 'miss': 408, 'acc': 0.3761467889908257}})
errors:defaultdict(<function Classifier.evaluate.<locals>.<lambda> at 0x0ED4C108>, {'pos': defaultdict(<class 'int'>, {'neg': 309, 'pos': 1387}), 'neg': defaultdict(<class 'int'>, {'neg': 246, 'pos': 408})})

 ------------------------------------------------------
mic:0.7391489361702127
mac:0.5898449354315026
results:defaultdict(<function Classifier.evaluate.<locals>.<lambda> at 0x0AC085D0>, {'neg': {'hit': 171, 'miss': 402, 'acc': 0.29842931937172773}, 'pos': {'hit': 1566, 'miss': 211, 'acc': 0.8812605514912775}})
errors:defaultdict(<function Classifier.evaluate.<locals>.<lambda> at 0x0B3A0D68>, {'neg': defaultdict(<class 'int'>, {'neg': 171, 'pos': 402}), 'pos': defaultdict(<class 'int'>, {'neg': 211, 'pos': 1566})})

 ------------------------------------------------------
mic:0.7229787234042553
mac:0.5626428571428571
results:defaultdict(<function Classifier.evaluate.<locals>.<lambda> at 0x0ACC5C90>, {'pos': {'hit': 1558, 'miss': 192, 'acc': 0.8902857142857142}, 'neg': {'hit': 141, 'miss': 459, 'acc': 0.235}})
errors:defaultdict(<function Classifier.evaluate.<locals>.<lambda> at 0x0B8AF540>, {'pos': defaultdict(<class 'int'>, {'neg': 192, 'pos': 1558}), 'neg': defaultdict(<class 'int'>, {'neg': 141, 'pos': 459})})

 ------------------------------------------------------
mic:0.7565957446808511
mac:0.6202760199866862
results:defaultdict(<function Classifier.evaluate.<locals>.<lambda> at 0x0C91E0C0>, {'neg': {'hit': 201, 'miss': 355, 'acc': 0.36151079136690645}, 'pos': {'hit': 1577, 'miss': 217, 'acc': 0.879041248606466}})
errors:defaultdict(<function Classifier.evaluate.<locals>.<lambda> at 0x0C91EDF8>, {'neg': defaultdict(<class 'int'>, {'neg': 201, 'pos': 355}), 'pos': defaultdict(<class 'int'>, {'neg': 217, 'pos': 1577})})

<class 'yatk.ml.svm2.SVM2'> unigram delta 72.02836879432624: 72.0% __polynomial koef1 =2 koef2 =0 koef3 =1


>>>>>>>>>>>>>>>>>>>>>>>>>>>>>>>>>>>>>>>>>>>>>>>>>>>>>>>>>>>>>>>>>>>>>>>>>>>>>>>
 ------------------------------------------------------
mic:0.7557446808510638
mac:0.5193972968409543
results:defaultdict(<function Classifier.evaluate.<locals>.<lambda> at 0x14E5D468>, {'neg': {'hit': 40, 'miss': 514, 'acc': 0.07220216606498195}, 'pos': {'hit': 1736, 'miss': 60, 'acc': 0.9665924276169265}})
errors:defaultdict(<function Classifier.evaluate.<locals>.<lambda> at 0x14E454F8>, {'neg': defaultdict(<class 'int'>, {'neg': 40, 'pos': 514}), 'pos': defaultdict(<class 'int'>, {'neg': 60, 'pos': 1736})})

 ------------------------------------------------------
mic:0.6987234042553192
mac:0.5073416440331167
results:defaultdict(<function Classifier.evaluate.<locals>.<lambda> at 0x0AAFE810>, {'neg': {'hit': 54, 'miss': 590, 'acc': 0.08385093167701864}, 'pos': {'hit': 1588, 'miss': 118, 'acc': 0.9308323563892146}})
errors:defaultdict(<function Classifier.evaluate.<locals>.<lambda> at 0x0AB19CD8>, {'neg': defaultdict(<class 'int'>, {'neg': 54, 'pos': 590}), 'pos': defaultdict(<class 'int'>, {'pos': 1588, 'neg': 118})})

 ------------------------------------------------------
mic:0.7063829787234043
mac:0.5119330967630258
results:defaultdict(<function Classifier.evaluate.<locals>.<lambda> at 0x1A703348>, {'pos': {'hit': 1612, 'miss': 84, 'acc': 0.9504716981132075}, 'neg': {'hit': 48, 'miss': 606, 'acc': 0.07339449541284404}})
errors:defaultdict(<function Classifier.evaluate.<locals>.<lambda> at 0x110D0D68>, {'pos': defaultdict(<class 'int'>, {'neg': 84, 'pos': 1612}), 'neg': defaultdict(<class 'int'>, {'neg': 48, 'pos': 606})})

 ------------------------------------------------------
mic:0.7476595744680851
mac:0.5127005826829343
results:defaultdict(<function Classifier.evaluate.<locals>.<lambda> at 0x142089C0>, {'neg': {'hit': 31, 'miss': 542, 'acc': 0.05410122164048865}, 'pos': {'hit': 1726, 'miss': 51, 'acc': 0.9712999437253799}})
errors:defaultdict(<function Classifier.evaluate.<locals>.<lambda> at 0x10966030>, {'neg': defaultdict(<class 'int'>, {'neg': 31, 'pos': 542}), 'pos': defaultdict(<class 'int'>, {'neg': 51, 'pos': 1726})})

 ------------------------------------------------------
mic:0.7272340425531915
mac:0.5019761904761905
results:defaultdict(<function Classifier.evaluate.<locals>.<lambda> at 0x15615BB8>, {'pos': {'hit': 1684, 'miss': 66, 'acc': 0.9622857142857143}, 'neg': {'hit': 25, 'miss': 575, 'acc': 0.041666666666666664}})
errors:defaultdict(<function Classifier.evaluate.<locals>.<lambda> at 0x0F0D5E88>, {'pos': defaultdict(<class 'int'>, {'neg': 66, 'pos': 1684}), 'neg': defaultdict(<class 'int'>, {'neg': 25, 'pos': 575})})

 ------------------------------------------------------
mic:0.7421276595744681
mac:0.5152316274071044
results:defaultdict(<function Classifier.evaluate.<locals>.<lambda> at 0x0CE35270>, {'neg': {'hit': 47, 'miss': 509, 'acc': 0.08453237410071943}, 'pos': {'hit': 1697, 'miss': 97, 'acc': 0.9459308807134894}})
errors:defaultdict(<function Classifier.evaluate.<locals>.<lambda> at 0x255E3B70>, {'neg': defaultdict(<class 'int'>, {'neg': 47, 'pos': 509}), 'pos': defaultdict(<class 'int'>, {'neg': 97, 'pos': 1697})})

<class 'yatk.ml.svm2.SVM2'> bigram delta 72.9645390070922: 73.0% __polynomial koef1 =2 koef2 =0 koef3 =1


>>>>>>>>>>>>>>>>>>>>>>>>>>>>>>>>>>>>>>>>>>>>>>>>>>>>>>>>>>>>>>>>>>>>>>>>>>>>>>>
 ------------------------------------------------------
mic:0.7263829787234043
mac:0.5881903628601063
results:defaultdict(<function Classifier.evaluate.<locals>.<lambda> at 0x22DEE108>, {'neg': {'hit': 181, 'miss': 373, 'acc': 0.3267148014440433}, 'pos': {'hit': 1526, 'miss': 270, 'acc': 0.8496659242761693}})
errors:defaultdict(<function Classifier.evaluate.<locals>.<lambda> at 0x22DEE270>, {'neg': defaultdict(<class 'int'>, {'pos': 373, 'neg': 181}), 'pos': defaultdict(<class 'int'>, {'neg': 270, 'pos': 1526})})

 ------------------------------------------------------
mic:0.6323404255319149
mac:0.5858324292049253
results:defaultdict(<function Classifier.evaluate.<locals>.<lambda> at 0x21D0DD68>, {'neg': {'hit': 311, 'miss': 333, 'acc': 0.4829192546583851}, 'pos': {'hit': 1175, 'miss': 531, 'acc': 0.6887456037514654}})
errors:defaultdict(<function Classifier.evaluate.<locals>.<lambda> at 0x21D0DB70>, {'neg': defaultdict(<class 'int'>, {'neg': 311, 'pos': 333}), 'pos': defaultdict(<class 'int'>, {'neg': 531, 'pos': 1175})})

 ------------------------------------------------------
mic:0.668936170212766
mac:0.58791778460562
results:defaultdict(<function Classifier.evaluate.<locals>.<lambda> at 0x13ABAB28>, {'pos': {'hit': 1307, 'miss': 389, 'acc': 0.7706367924528302}, 'neg': {'hit': 265, 'miss': 389, 'acc': 0.40519877675840976}})
errors:defaultdict(<function Classifier.evaluate.<locals>.<lambda> at 0x1033AC90>, {'pos': defaultdict(<class 'int'>, {'neg': 389, 'pos': 1307}), 'neg': defaultdict(<class 'int'>, {'neg': 265, 'pos': 389})})

 ------------------------------------------------------
mic:0.7072340425531914
mac:0.5888436793191263
results:defaultdict(<function Classifier.evaluate.<locals>.<lambda> at 0x2791DFA8>, {'neg': {'hit': 205, 'miss': 368, 'acc': 0.35776614310645727}, 'pos': {'hit': 1457, 'miss': 320, 'acc': 0.8199212155317952}})
errors:defaultdict(<function Classifier.evaluate.<locals>.<lambda> at 0x17057F18>, {'neg': defaultdict(<class 'int'>, {'neg': 205, 'pos': 368}), 'pos': defaultdict(<class 'int'>, {'neg': 320, 'pos': 1457})})

 ------------------------------------------------------
mic:0.7012765957446808
mac:0.5694285714285714
results:defaultdict(<function Classifier.evaluate.<locals>.<lambda> at 0x14A750C0>, {'pos': {'hit': 1468, 'miss': 282, 'acc': 0.8388571428571429}, 'neg': {'hit': 180, 'miss': 420, 'acc': 0.3}})
errors:defaultdict(<function Classifier.evaluate.<locals>.<lambda> at 0x294DC7C8>, {'pos': defaultdict(<class 'int'>, {'neg': 282, 'pos': 1468}), 'neg': defaultdict(<class 'int'>, {'neg': 180, 'pos': 420})})

 ------------------------------------------------------
mic:0.723404255319149
mac:0.6028809059775591
results:defaultdict(<function Classifier.evaluate.<locals>.<lambda> at 0x230568E8>, {'neg': {'hit': 208, 'miss': 348, 'acc': 0.37410071942446044}, 'pos': {'hit': 1492, 'miss': 302, 'acc': 0.8316610925306578}})
errors:defaultdict(<function Classifier.evaluate.<locals>.<lambda> at 0x0B539780>, {'neg': defaultdict(<class 'int'>, {'neg': 208, 'pos': 348}), 'pos': defaultdict(<class 'int'>, {'neg': 302, 'pos': 1492})})

<class 'yatk.ml.svm2.SVM2'> bogram delta 69.32624113475178: 69.3% __polynomial koef1 =2 koef2 =0 koef3 =1


>>>>>>>>>>>>>>>>>>>>>>>>>>>>>>>>>>>>>>>>>>>>>>>>>>>>>>>>>>>>>>>>>>>>>>>>>>>>>>>
 ------------------------------------------------------
mic:0.7778723404255319
mac:0.5844284933225057
results:defaultdict(<function Classifier.evaluate.<locals>.<lambda> at 0x0D207FA8>, {'neg': {'hit': 121, 'miss': 433, 'acc': 0.2184115523465704}, 'pos': {'hit': 1707, 'miss': 89, 'acc': 0.950445434298441}})
errors:defaultdict(<function Classifier.evaluate.<locals>.<lambda> at 0x0D419198>, {'neg': defaultdict(<class 'int'>, {'neg': 121, None: 17, 'pos': 416}), 'pos': defaultdict(<class 'int'>, {'neg': 57, None: 32, 'pos': 1707})})

 ------------------------------------------------------
mic:0.7387234042553191
mac:0.5798396962128549
results:defaultdict(<function Classifier.evaluate.<locals>.<lambda> at 0x0BC374F8>, {'neg': {'hit': 147, 'miss': 497, 'acc': 0.22826086956521738}, 'pos': {'hit': 1589, 'miss': 117, 'acc': 0.9314185228604924}})
errors:defaultdict(<function Classifier.evaluate.<locals>.<lambda> at 0x0BC37FA8>, {'neg': defaultdict(<class 'int'>, {'neg': 147, None: 9, 'pos': 488}), 'pos': defaultdict(<class 'int'>, {'neg': 97, None: 20, 'pos': 1589})})

 ------------------------------------------------------
mic:0.731063829787234
mac:0.5670790418902545
results:defaultdict(<function Classifier.evaluate.<locals>.<lambda> at 0x097B3738>, {'pos': {'hit': 1589, 'miss': 107, 'acc': 0.9369103773584906}, 'neg': {'hit': 129, 'miss': 525, 'acc': 0.19724770642201836}})
errors:defaultdict(<function Classifier.evaluate.<locals>.<lambda> at 0x0C150B28>, {'pos': defaultdict(<class 'int'>, {'neg': 74, None: 33, 'pos': 1589}), 'neg': defaultdict(<class 'int'>, {'neg': 129, None: 29, 'pos': 496})})

 ------------------------------------------------------
mic:0.7604255319148936
mac:0.5696224100661841
results:defaultdict(<function Classifier.evaluate.<locals>.<lambda> at 0x0872C0C0>, {'neg': {'hit': 113, 'miss': 460, 'acc': 0.19720767888307156}, 'pos': {'hit': 1674, 'miss': 103, 'acc': 0.9420371412492966}})
errors:defaultdict(<function Classifier.evaluate.<locals>.<lambda> at 0x098B6CD8>, {'neg': defaultdict(<class 'int'>, {'pos': 447, None: 13, 'neg': 113}), 'pos': defaultdict(<class 'int'>, {'neg': 58, None: 45, 'pos': 1674})})

 ------------------------------------------------------
mic:0.7531914893617021
mac:0.5621190476190476
results:defaultdict(<function Classifier.evaluate.<locals>.<lambda> at 0x0B7984F8>, {'pos': {'hit': 1667, 'miss': 83, 'acc': 0.9525714285714286}, 'neg': {'hit': 103, 'miss': 497, 'acc': 0.17166666666666666}})
errors:defaultdict(<function Classifier.evaluate.<locals>.<lambda> at 0x0B798270>, {'pos': defaultdict(<class 'int'>, {'neg': 55, None: 28, 'pos': 1667}), 'neg': defaultdict(<class 'int'>, {'neg': 103, None: 11, 'pos': 486})})

 ------------------------------------------------------
mic:0.7753191489361703
mac:0.5630348563958198
results:defaultdict(<function Classifier.evaluate.<locals>.<lambda> at 0x0BEF6AE0>, {'neg': {'hit': 89, 'miss': 467, 'acc': 0.16007194244604317}, 'pos': {'hit': 1733, 'miss': 61, 'acc': 0.9659977703455964}})
errors:defaultdict(<function Classifier.evaluate.<locals>.<lambda> at 0x0AF5F660>, {'neg': defaultdict(<class 'int'>, {'neg': 89, None: 7, 'pos': 460}), 'pos': defaultdict(<class 'int'>, {'neg': 33, None: 28, 'pos': 1733})})

<class 'yatk.ml.nb.NaiveBayes'> unigram bin 75.60992907801419: 75.6% __linear koef1 =0 koef2 =0 koef3 =0


